Chapter 7 Simple DID estimator | R Book for Quasi-Experimental Designs
…
there is a significance table that can be extracted with one of the many grab_ prefix functions.

smoking_out %>% grab_significance()

## # A tibble: 39 × 8
##    unit_name      type    pre_mspe post_mspe mspe_ratio  rank fishers_…¹ z_score
##    <chr>          <chr>      <dbl>     <dbl>      <dbl> <int>      <dbl>   <dbl>
##  1 California     Treated     3.17     392.      124.       1     0.0256  5.32  
##  2 Georgia        Donor       3.79     179.       47.2      2     0.0513  1.70  
##  3 Indiana        Donor      25.2      770.       30.6      3     0.0769  0.916 
##  4 West Virginia  Donor       9.52     284.       29.8      4     0.103   0.881 
##  5 Wisconsin      Donor      11.1      268.       24.1      5     0.128   0.607 
##  6 Missouri       Donor       3.03      67.8      22.4      6     0.154   0.528 
##  7 Texas          Donor      14.4      277.       19.3      7     0.179   0.383 
##  8 South Carolina Donor      12.6      234.       18.6      8     0.205   0.351 
##  9 Virginia       Donor       9.81      96.4       9.83     9     0.231  -0.0646
## 10 Nebraska       Donor       6.30      52.9       8.40    10     0.256  -0.132 
## # … with 29 more rows, and abbreviated variable name ¹​fishers_exact_pvalue
